<svg xmlns="http://www.w3.org/2000/svg" xmlns:xlink="http://www.w3.org/1999/xlink" width="24" height="24" viewBox="0 0 20 20">
    <defs>
        <path id="a" d="M6.54 6.017L9.095.575a1 1 0 0 1 1.81 0l2.555 5.442 5.691.87a1 1 0 0 1 .565 1.686l-4.148 4.251.981 6.015a1 1 0 0 1-1.47 1.036L10 17.068l-5.078 2.807A1 1 0 0 1 3.45 18.84l.98-6.015-4.147-4.25A1 1 0 0 1 .85 6.885l5.691-.869z"/>
    </defs>
    <g fill="none" fill-rule="evenodd">
        <path d="M-10-10h40v40h-40z"/>
        <g>
            <mask id="b" fill="#fff">
                <use xlink:href="#a"/>
            </mask>
            <use fill="#000" fill-rule="nonzero" xlink:href="#a"/>
            <g fill="#736E7D" mask="url(#b)">
                <path d="M0 0h20v20H0z"/>
            </g>
        </g>
    </g>
</svg>
