<svg xmlns="http://www.w3.org/2000/svg" xmlns:xlink="http://www.w3.org/1999/xlink" width="50" height="50" viewBox="0 0 50 50">
    <defs>
        <path id="a" d="M19.232 12.545L5.463 23.328a.94.94 0 0 1-1.008.1.985.985 0 0 1-.533-.881V.983c0-.374.206-.715.533-.881a.94.94 0 0 1 1.008.1l13.769 10.783a.99.99 0 0 1 .376.78.99.99 0 0 1-.376.78z"/>
    </defs>
    <g fill="none" fill-rule="evenodd">
        <ellipse cx="24.84" cy="24.803" fill="#2D2D2D" fill-opacity=".453" fill-rule="nonzero" stroke="#FFF" stroke-opacity=".588" stroke-width=".98" rx="24.35" ry="24.313"/>
        <g transform="translate(15.898 12.898)">
            <mask id="b" fill="#fff">
                <use xlink:href="#a"/>
            </mask>
            <use fill="#FFF" xlink:href="#a"/>
            <g fill="#FFF" mask="url(#b)">
                <path d="M0 0h23.53v23.53H0z"/>
            </g>
        </g>
    </g>
</svg>
