<svg xmlns="http://www.w3.org/2000/svg" width="17" height="24" viewBox="0 0 17 24">
    <g fill="none" fill-rule="evenodd">
        <path d="M-14-8h40v40h-40z"/>
        <path fill="#EAEEF3" d="M16.461 12.794L2.107 23.771A1 1 0 0 1 .5 22.976V1.024A1 1 0 0 1 2.107.229l14.354 10.977a1 1 0 0 1 0 1.588z"/>
    </g>
</svg>
