<svg xmlns="http://www.w3.org/2000/svg" width="10" height="38" viewBox="0 0 10 38">
    <path fill="none" fill-rule="evenodd" stroke="#FFF" stroke-linecap="round" stroke-linejoin="round" stroke-width="2" d="M1 1l8 18-8 18"/>
</svg>
