<svg xmlns="http://www.w3.org/2000/svg" xmlns:xlink="http://www.w3.org/1999/xlink" width="24" height="24" viewBox="0 0 24 24">
    <defs>
        <path id="a" d="M18.937 23.652c-.231-.246-.14-1.326.27-3.241-2.22.014-4.345-1.25-5.523-3.284l-2.55-3.44-3.72 5.066a3.394 3.394 0 0 1-2.932 1.672H.867c-.51 0-.867-.38-.867-.921 0-.543.356-.922.867-.922h3.615c.55 0 1.102-.309 1.553-.868l3.975-5.504-3.98-5.436c-.34-.575-.944-.938-1.548-.938H.867c-.51 0-.867-.38-.867-.922 0-.543.356-.921.867-.921h3.615c1.16 0 2.312.612 3.007 1.597l3.644 4.986 2.56-3.529C14.9 5.043 16.972 3.84 19.229 3.84c-.434-1.786-.65-2.758-.65-2.918 0-.238.091-.468.258-.646A.836.836 0 0 1 19.446 0c.225 0 .44.098.608.275l3.613 3.684c.234.249.333.51.333.879 0 .422-.122.731-.353.895l-3.595 3.669a.893.893 0 0 1-.606.273.897.897 0 0 1-.609-.275c-.23-.246-.095-1.46.408-3.641-1.696 0-3.246.892-4.16 2.387l-2.903 3.986 2.824 3.9c.906 1.553 2.455 2.473 4.15 2.473-.433-1.786-.65-2.758-.65-2.917 0-.24.092-.469.26-.647a.833.833 0 0 1 .607-.275c.226 0 .441.098.608.276l3.684 3.604c.236.251.335.513.335.88 0 .423-.122.733-.353.896l-3.522 3.405a.895.895 0 0 1-.607.273c-.173 0-.402-.158-.581-.348z"/>
    </defs>
    <g fill="none" fill-rule="evenodd">
        <mask id="b" fill="#2ba7ff">
            <use xlink:href="#a"/>
        </mask>
        <use fill="#fff" xlink:href="#a"/>
        <g fill="#fff" mask="url(#b)">
            <path d="M0 0h24v24H0z"/>
        </g>
    </g>
</svg>
