<svg xmlns:xlink="http://www.w3.org/1999/xlink" xmlns="http://www.w3.org/2000/svg" width="20" height="20" viewBox="0 0 20 20">
    <defs>
        <path id="a" d="M14.618 16.032a9 9 0 1 1 1.414-1.414l3.675 3.675a1 1 0 0 1-1.414 1.414l-3.675-3.675zM9 2C5.14 2 2 5.14 2 9c0 3.859 3.14 7 7 7s7-3.141 7-7c0-3.86-3.14-7-7-7z"/>
    </defs>
    <g fill="none" fill-rule="evenodd">
        <path d="M-10-10h40v40h-40z"/>
        <g>
            <mask id="b" fill="#fff">
                <use xlink:href="#a"/>
            </mask>
            <use fill="#fff" xlink:href="#a"/>
            <g fill="#fff" mask="url(#b)">
                <path d="M0 0h20v20H0z"/>
            </g>
        </g>
    </g>
</svg>
