<svg xmlns:xlink="http://www.w3.org/1999/xlink" xmlns="http://www.w3.org/2000/svg" width="20" height="20" viewBox="0 0 20 20">
    <defs>
        <path id="a" d="M15 15.707a9 9 0 1 1 .707-.707l4.147 4.146a.5.5 0 0 1-.708.708L15 15.707zM9 1C4.589 1 1 4.589 1 8.999c0 4.411 3.589 8 8 8s7.999-3.589 7.999-8C16.999 4.589 13.411 1 9 1z"/>
    </defs>
    <g fill="none" fill-rule="evenodd">
        <path d="M-10-10h40v40h-40z"/>
        <g>
            <mask id="b" fill="#fff">
                <use xlink:href="#a"/>
            </mask>
            <use fill="#736E7D" xlink:href="#a"/>
            <text fill="#736E7D" font-family="Gotham-Bold, Gotham" font-size="14" font-weight="bold" letter-spacing="1.3" mask="url(#b)">
                <tspan x="-115.671" y="26">Type something</tspan>
            </text>
        </g>
    </g>
</svg>
