<svg xmlns="http://www.w3.org/2000/svg" xmlns:xlink="http://www.w3.org/1999/xlink" width="9" height="15" viewBox="0 0 9 15">
    <defs>
        <path id="a" d="M.29 13.004a1 1 0 1 0 1.42 1.407l6.262-6.33a1 1 0 0 0 .003-1.403L1.714.299A1 1 0 0 0 .286 1.701l5.571 5.674-5.568 5.63z"/>
    </defs>
    <g fill="none" fill-rule="evenodd">
        <mask id="b" fill="#fff">
            <use xlink:href="#a"/>
        </mask>
        <use fill="#000" fill-rule="nonzero" xlink:href="#a"/>
        <path fill="#2ba7ff" d="M-8-5h24v24H-8z" mask="url(#b)"/>
    </g>
</svg>
