<svg xmlns:xlink="http://www.w3.org/1999/xlink" xmlns="http://www.w3.org/2000/svg" width="184" height="35" viewBox="0 0 184 35">
    <defs>
        <path id="a" d="M.03.178h8.22v34.801H.03z"/>
        <path id="c" d="M.02.178h169.526v34.801H.02z"/>
    </defs>
    <g fill="none" fill-rule="evenodd">
        <g transform="translate(175.219)">
            <mask id="b" fill="#fff">
                <use xlink:href="#a"/>
            </mask>
            <path fill="#0000EB" d="M.347 2.802a26.048 26.048 0 0 1 4.558 14.77 26.053 26.053 0 0 1-4.58 14.802 1.675 1.675 0 0 0 .432 2.33 1.67 1.67 0 0 0 2.328-.43A29.398 29.398 0 0 0 8.25 17.572 29.397 29.397 0 0 0 3.108.906 1.673 1.673 0 0 0 .781.472a1.677 1.677 0 0 0-.434 2.33" mask="url(#b)"/>
        </g>
        <path fill="#0000EB" d="M170.26 30.111a1.68 1.68 0 0 0 2.347-.334 20.084 20.084 0 0 0 4.045-12.148c0-4.462-1.42-8.692-4.11-12.233a1.675 1.675 0 1 0-2.669 2.026 16.737 16.737 0 0 1 3.43 10.207c0 3.69-1.164 7.195-3.374 10.136a1.675 1.675 0 0 0 .331 2.346"/>
        <g>
            <mask id="d" fill="#fff">
                <use xlink:href="#c"/>
            </mask>
            <path fill="#0000EB" d="M164.3 26.01c.72.58 1.776.464 2.356-.257a13.173 13.173 0 0 0 2.89-8.223c0-2.964-.961-5.76-2.78-8.087a1.672 1.672 0 0 0-2.352-.287 1.674 1.674 0 0 0-.288 2.352 9.682 9.682 0 0 1 2.071 6.022 9.675 9.675 0 0 1-2.152 6.122 1.678 1.678 0 0 0 .255 2.358M7.935 32.374a26.017 26.017 0 0 1-4.58-14.802 26.03 26.03 0 0 1 4.558-14.77A1.676 1.676 0 0 0 5.149.906 29.371 29.371 0 0 0 0 17.572c0 6 1.79 11.775 5.173 16.702a1.671 1.671 0 0 0 2.33.43 1.675 1.675 0 0 0 .432-2.33s.524.763 0 0c0 0 .524.763 0 0" mask="url(#d)"/>
        </g>
        <path fill="#0000EB" d="M13.603 7.422a1.679 1.679 0 0 0-.32-2.35 1.675 1.675 0 0 0-2.346.324 20.066 20.066 0 0 0-4.111 12.233c0 4.421 1.398 8.623 4.046 12.148a1.675 1.675 0 0 0 2.677-2.012 16.768 16.768 0 0 1-3.374-10.136c0-3.723 1.184-7.252 3.428-10.207"/>
        <path fill="#0000EB" d="M13.931 17.53c0 2.983 1.028 5.903 2.892 8.223.58.721 1.636.837 2.356.257.719-.58.835-1.635.253-2.358a9.679 9.679 0 0 1-2.15-6.122c0-2.207.715-4.29 2.072-6.022a1.68 1.68 0 0 0-.288-2.352 1.67 1.67 0 0 0-2.352.287 12.995 12.995 0 0 0-2.783 8.087s0-2.964 0 0c0 0 0-2.964 0 0"/>
        <path fill="#000" d="M30.097 21.249c0 .776.296 1.368.813 1.774.48.37 1.145.592 1.884.592 1.182 0 2.438-.37 2.438-1.738 0-3.105-11.858-.628-11.858-8.132 0-4.953 5.135-6.396 9.162-6.396 4.21 0 9.161.962 9.604 6.1h-6.982c-.074-.628-.332-1.072-.739-1.405-.406-.332-.96-.48-1.55-.48-1.33 0-2.18.406-2.18 1.367 0 2.7 12.227.887 12.227 8.133 0 4.03-3.325 6.764-10.418 6.764-4.433 0-9.308-1.368-9.714-6.58h7.313M44.21 27.379h6.24V11.645h-6.24v15.734zm0-17.016h6.24V7.38h-6.24v2.982zM52.1 11.645h5.671v3.182h.06c.87-2.461 2.4-3.632 4.83-3.632.27 0 .541.06.811.09v6.245c-.42-.06-.87-.18-1.29-.18-2.55 0-3.84 1.2-3.84 4.593v5.436H52.1V11.645M64.8 27.379h6.241V11.645h-6.24v15.734zm0-17.016h6.241V7.38h-6.24v2.982zM89.674 27.379h-5.791v-2.314c-1.56 2.162-3.09 2.763-5.67 2.763-3.421 0-5.64-2.101-5.64-6.605v-9.578h6.24v8.497c0 2.162.75 2.852 2.25 2.852 1.8 0 2.37-1.351 2.37-3.782v-7.567h6.241v15.734M96.276 22.484c0 .63.24 1.111.66 1.44.39.302.93.482 1.53.482.96 0 1.98-.3 1.98-1.412 0-2.521-9.632-.51-9.632-6.604 0-4.024 4.171-5.195 7.442-5.195 3.421 0 7.441.78 7.802 4.953h-5.67c-.062-.51-.271-.87-.602-1.14-.33-.27-.78-.39-1.26-.39-1.08 0-1.77.33-1.77 1.11 0 2.192 9.931.721 9.931 6.606 0 3.273-2.7 5.494-8.46 5.494-3.601 0-7.562-1.11-7.892-5.344h5.941"/>
        <path fill="#000" d="M112.755 17.145l-6.39-9.24h8.532l2.438 4.841 2.586-4.842h8.422l-6.612 9.204 6.685 10.166h-8.57l-2.733-5.546-2.806 5.546h-8.497l6.945-10.13M128.897 7.904h7.057v2.883c.96-1.479 2.708-3.435 5.478-3.435 3.204 0 5.142 1.475 6.066 3.546 1.663-2.328 3.12-3.544 5.92-3.545 4.872 0 7.268 3.175 7.268 8.461v11.46h-7.683v-9.87c0-2.846-.185-3.991-2.217-3.986-2.158.006-2.143 1.954-2.143 4.282v9.574h-7.684v-9.87c0-2.846-.167-3.937-2.214-3.99-2.11-.054-2.164 1.958-2.164 4.286v9.574h-7.684V7.904"/>
        <path fill="#FFFFFE" d="M160.401 8.284a1.759 1.759 0 0 1-1.774-1.78v-.012a1.77 1.77 0 0 1 1.785-1.792c.995 0 1.774.782 1.774 1.78v.012a1.77 1.77 0 0 1-1.785 1.792zm.011-3.854c-1.139 0-2.066.925-2.066 2.062v.011c0 1.131.922 2.051 2.055 2.051 1.14 0 2.066-.925 2.066-2.062V6.48a2.055 2.055 0 0 0-2.055-2.051z"/>
        <path fill="#FFFFFE" d="M160.518 6.408h-.526v-.672h.526c.264 0 .42.117.42.33v.011c0 .202-.156.33-.42.33zm.835-.353v-.011a.59.59 0 0 0-.174-.443c-.146-.145-.364-.23-.644-.23h-.946v2.124h.403V6.76h.443l.515.734h.481l-.57-.801c.29-.084.492-.298.492-.639z"/>
    </g>
</svg>
