<svg xmlns="http://www.w3.org/2000/svg" width="24" height="18" viewBox="0 0 24 18">
    <g fill="none" fill-rule="evenodd">
        <path d="M-9-11h40v40H-9z"/>
        <path fill="#202D3F" d="M4.919 6.002l4.326-4.98A1 1 0 0 1 11 1.677V15.44a1 1 0 0 1-1.715.699l-4.042-4.137H1a1 1 0 0 1-1-1v-4a1 1 0 0 1 1-1h3.919z"/>
        <path stroke="#202D3F" stroke-linecap="round" stroke-width="1.5" d="M13 13c1.176-.667 2-2.217 2-4.022C15 7.21 14.211 5.689 13.076 5M15.41 15c1.763-1 3-3.325 3-6.033 0-2.65-1.184-4.933-2.887-5.967"/>
        <path stroke="#202D3F" stroke-linecap="round" stroke-width="1.5" d="M18.41 17c2.351-1.333 4-4.433 4-8.045 0-3.533-1.578-6.576-3.849-7.955" opacity=".5"/>
    </g>
</svg>