<?xml version="1.0" encoding="UTF-8"?>
<svg width="24px" height="18px" viewBox="0 0 24 18" version="1.1" xmlns="http://www.w3.org/2000/svg" xmlns:xlink="http://www.w3.org/1999/xlink">
    <g id="Sprite-Sheet" stroke="none" stroke-width="1" fill="none" fill-rule="evenodd">
        <g id="Web-Icon-Sheet-1.5v" transform="translate(-229.000000, -231.000000)">
            <g id="volume_2-copy" transform="translate(220.000000, 220.000000)">
                <rect id="Rectangle-10" x="0" y="0" width="40" height="40"></rect>
                <g id="volume_icon" transform="translate(9.000000, 11.000000)">
                    <path d="M4.91865604,6.0015501 L9.24509485,1.02155359 C9.60730196,0.604630991 10.2389114,0.560275319 10.655834,0.922482426 C10.8744538,1.11241137 11,1.38778846 11,1.67738758 L11,15.4402412 C11,15.992526 10.5522847,16.4402412 10,16.4402412 C9.73072679,16.4402412 9.47283274,16.3316462 9.28466857,16.1390266 L5.24289474,12.0015501 L1,12.0015501 C0.44771525,12.0015501 6.76353751e-17,11.5538348 0,11.0015501 L0,7.0015501 C-6.76353751e-17,6.44926535 0.44771525,6.0015501 1,6.0015501 L4.91865604,6.0015501 Z" id="Combined-Shape" fill="#FFFFFF"></path>
                    <path d="M13,13 C14.1758351,12.3334771 15,10.7834504 15,8.97767616 C15,7.21110032 14.2112275,5.68928938 13.0760705,5" id="Oval-Copy-3" stroke="#FFFFFF" stroke-width="1.5" stroke-linecap="round"></path>
                    <path d="M15.4093424,15 C17.1730951,14.0002157 18.4093424,11.6751756 18.4093424,8.96651424 C18.4093424,6.31665049 17.2261837,4.03393407 15.5234482,3" id="Oval-Copy-4" stroke="#FFFFFF" stroke-width="1.5" stroke-linecap="round"></path>
                    <path d="M18.4093424,17 C20.7610127,15.6669543 22.4093424,12.5669008 22.4093424,8.95535232 C22.4093424,5.42220065 20.8317975,2.37857875 18.5614835,1" id="Oval-Copy-5" stroke="#FFFFFF" stroke-width="1.5" stroke-linecap="round"></path>
                </g>
            </g>
        </g>
    </g>
</svg>