<?xml version="1.0" encoding="UTF-8"?>
<svg width="19px" height="21px" viewBox="0 0 19 21" version="1.1" xmlns="http://www.w3.org/2000/svg" xmlns:xlink="http://www.w3.org/1999/xlink">
    <!-- Generator: Sketch 62 (91390) - https://sketch.com -->
    <title>a_1_ copy</title>
    <desc>Created with Sketch.</desc>
    <g id="Page-1" stroke="none" stroke-width="1" fill="none" fill-rule="evenodd">
        <path d="M9.83392111,0.4 C9.83392111,0 9.23392111,-0.1 9.03392111,0.1 L6.03392111,2.7 C5.93392111,2.8 5.93392111,2.8 5.93392111,2.8 C5.73392111,3 5.83392111,3.2 5.93392111,3.4 L8.93392111,5.9 C9.33392111,6.2 9.83392111,6 9.83392111,5.6 L9.83392111,4 C11.7339211,4 13.5339211,4.8 14.8339211,6.1 C17.6339211,8.9 17.5339211,13.3 14.8339211,16 C12.1339211,18.7 7.63392111,18.7 4.93392111,15.9 C2.13392111,13.1 2.23392111,8.7 4.93392111,6 L3.53392111,4.6 C-0.0660788909,8 -0.0660788909,13.7 3.43392111,17.3 C6.93392111,20.9 12.6339211,21 16.1339211,17.5 C19.7339211,14 19.7339211,8.3 16.2339211,4.7 C14.5339211,3 12.2339211,2 9.83392111,2 L9.83392111,0.4 Z M11.7339211,10 L12.4339211,10.2 L12.6339211,9.4 L11.4339211,9 L10.8339211,9 L10.8339211,13.2 L11.7339211,13.2 C11.7339211,13.2 11.7339211,9.9 11.7339211,10 Z M10.2339211,12.7 L9.63392111,12 C9.33392111,12.3 9.03392111,12.5 8.63392111,12.5 C8.23392111,12.5 7.93392111,12.3 7.93392111,11.9 L7.93392111,11.9 C7.93392111,11.5 8.23392111,11.3 8.63392111,11.3 C8.83392111,11.3 9.13392111,11.4 9.33392111,11.5 L9.83392111,11.1 L9.73392111,9 L7.13392111,9 L7.13392111,9.9 L8.93392111,9.9 L8.93392111,10.6 C8.73392111,10.5 8.53392111,10.5 8.33392111,10.5 C7.53392111,10.5 6.83392111,10.9 6.83392111,11.8 L6.83392111,11.8 C6.83392111,12.7 7.43392111,13.3 8.43392111,13.3 C9.13392111,13.3 9.63392111,13.1 10.2339211,12.7 Z" id="a_1_-copy" fill="#000000" fill-rule="nonzero" transform="translate(9.833921, 10.031844) scale(-1, 1) translate(-9.833921, -10.031844) "></path>
    </g>
</svg>