<svg xmlns="http://www.w3.org/2000/svg" xmlns:xlink="http://www.w3.org/1999/xlink" width="24" height="24" viewBox="0 0 24 24">
    <defs>
        <path id="a" d="M4 .955C4 .427 4.424 0 4.932 0h3.783a.95.95 0 0 1 .932.955v22.09a.948.948 0 0 1-.932.955H4.932A.95.95 0 0 1 4 23.045V.955zm10.353 0c0-.528.424-.955.932-.955h3.783A.95.95 0 0 1 20 .955v22.09a.948.948 0 0 1-.932.955h-3.783a.95.95 0 0 1-.932-.955V.955z"/>
    </defs>
    <g fill="none" fill-rule="evenodd">
        <mask id="b" fill="#fff">
            <use xlink:href="#a"/>
        </mask>
        <use fill="#FFF" fill-rule="nonzero" xlink:href="#a"/>
        <g fill="#000" mask="url(#b)">
            <path d="M0 0h24v24H0z"/>
        </g>
    </g>
</svg>
